{
	"name": "community-mod",
	"version": "0.26.9",
	"label": "0 A.D. Community Mod",
	"url": "https://gitlab.com/0ad/0ad-community-mod-a26",
	"description": "The Community Mod is a community-led effort to improve the gameplay of 0 A.D., officially backed by the 0 A.D. team.",
	"dependencies": ["0ad=0.0.26"]
}
